<?xml version="1.0" standalone="no"?>
<!DOCTYPE svg PUBLIC "-//W3C//DTD SVG 20010904//EN"
 "http://www.w3.org/TR/2001/REC-SVG-20010904/DTD/svg10.dtd">
<svg version="1.0" xmlns="http://www.w3.org/2000/svg"
 width="720.000000pt" height="720.000000pt" viewBox="0 0 720.000000 720.000000"
 preserveAspectRatio="xMidYMid meet">
<metadata>
Created by potrace 1.11, written by Peter Selinger 2001-2013
</metadata>
<g transform="translate(0.000000,720.000000) scale(0.100000,-0.100000)"
fill="#000000" stroke="none">
<path d="M3046 7187 c4 -7 20 -31 36 -54 15 -23 28 -46 28 -52 0 -6 4 -11 8
-11 12 0 103 -189 144 -300 57 -152 93 -293 123 -477 24 -149 25 -598 1 -719
-2 -11 -7 -47 -10 -79 -4 -32 -8 -61 -10 -64 -2 -3 -7 -28 -10 -56 -4 -27 -14
-79 -22 -115 -9 -36 -18 -76 -20 -89 -3 -14 -7 -28 -9 -31 -2 -4 -6 -20 -9
-36 -3 -16 -15 -60 -26 -99 -19 -64 -34 -117 -45 -155 -2 -8 -36 -103 -75
-210 -40 -107 -73 -199 -75 -205 -1 -5 -5 -17 -8 -25 -7 -17 -66 -238 -73
-273 -2 -12 -7 -38 -10 -57 -4 -19 -8 -44 -11 -55 -40 -210 -47 -509 -18 -785
5 -52 27 -184 42 -255 2 -11 6 -31 9 -45 41 -198 156 -536 269 -785 99 -218
298 -601 381 -733 19 -29 34 -57 34 -62 0 -6 5 -10 10 -10 6 0 10 -5 10 -11 0
-17 252 -381 290 -419 3 -3 17 -21 32 -42 15 -20 33 -42 40 -50 7 -7 38 -42
68 -78 119 -141 353 -363 470 -446 30 -21 60 -43 67 -49 7 -5 19 -16 27 -22 8
-7 18 -13 21 -13 3 0 32 -16 63 -37 59 -37 218 -115 262 -127 14 -4 34 -11 45
-16 11 -5 34 -12 50 -16 40 -10 45 -11 48 -14 4 -3 37 -8 37 -5 0 1 -35 31
-77 66 -98 80 -338 318 -428 424 -37 44 -77 91 -89 105 -12 14 -42 52 -66 85
-25 33 -47 62 -50 65 -14 14 -70 90 -70 95 0 3 -24 39 -54 79 -30 40 -61 86
-70 102 -9 16 -39 65 -67 109 -53 81 -58 91 -124 205 -41 71 -180 346 -215
425 -12 28 -33 73 -46 101 -13 28 -24 53 -24 56 0 3 -10 27 -22 54 -12 27 -23
51 -23 54 -2 6 -14 39 -25 65 -4 11 -18 47 -30 80 -12 33 -26 71 -32 85 -28
68 -141 433 -151 486 -2 10 -7 26 -10 34 -7 17 -37 159 -43 205 -23 172 -30
243 -30 295 1 33 -1 60 -4 60 -6 0 -3 270 3 350 4 49 8 81 22 200 10 84 16
126 21 142 3 9 9 41 15 70 17 94 20 112 45 203 13 50 24 91 24 93 -1 6 12 58
17 72 3 8 8 24 10 35 2 11 10 52 18 90 21 95 25 115 30 150 3 17 7 41 10 55 3
14 8 40 10 58 3 17 8 49 11 70 3 20 7 53 9 72 2 19 6 55 10 80 3 25 8 71 10
104 9 135 17 221 21 228 3 5 0 8 -6 8 -7 0 -8 6 -2 18 13 26 5 360 -13 527
-36 347 -127 632 -274 855 -62 94 -190 230 -264 280 -74 49 -169 101 -161 87z"/>
<path d="M130 5887 c40 -22 73 -41 84 -50 6 -4 45 -31 87 -60 112 -76 235
-182 352 -302 68 -69 197 -214 227 -254 14 -19 30 -39 35 -45 27 -28 116 -154
200 -281 125 -188 220 -357 360 -642 297 -602 417 -837 487 -956 15 -26 28
-50 28 -52 0 -10 141 -230 205 -319 196 -277 399 -453 679 -592 71 -35 132
-62 135 -59 2 3 -5 15 -16 28 -29 32 -123 165 -123 174 -1 5 -14 24 -30 43
-17 19 -30 40 -30 46 0 7 -4 14 -8 16 -11 4 -102 146 -102 157 0 5 -4 11 -9
13 -8 3 -18 17 -71 108 -11 19 -29 49 -40 65 -10 17 -31 53 -46 80 -14 28 -29
52 -33 55 -3 3 -11 14 -17 25 -6 11 -23 43 -39 70 -159 286 -318 635 -401 883
-19 59 -38 114 -41 122 -4 8 -7 17 -7 20 -3 14 -28 75 -87 215 -41 96 -124
263 -167 335 -12 19 -32 52 -44 74 -49 83 -108 170 -120 174 -4 2 -8 10 -8 18
0 8 -4 14 -10 14 -5 0 -10 5 -10 11 0 6 -12 26 -27 43 -16 18 -41 49 -57 69
-141 182 -387 404 -566 512 -36 21 -66 43 -68 47 -2 4 -12 8 -22 8 -10 0 -22
5 -25 11 -6 8 -36 24 -65 34 -3 1 -27 12 -55 24 -50 23 -116 49 -145 57 -8 2
-40 11 -70 19 -30 9 -65 18 -77 21 -13 2 -35 7 -50 10 -43 9 -68 12 -146 19
-65 5 -69 5 -47 -8z"/>
<path d="M2289 5556 c-2 -2 -22 -6 -44 -9 -22 -3 -53 -10 -70 -15 -36 -11
-134 -61 -155 -78 -26 -22 -114 -110 -125 -125 -41 -56 -85 -155 -101 -230 -5
-27 -6 -186 -1 -209 2 -8 7 -22 10 -30 3 -8 11 -33 17 -55 27 -89 144 -239
218 -279 60 -33 129 -64 157 -71 17 -4 39 -9 50 -12 32 -8 178 -9 205 -1 178
52 262 105 350 224 169 226 139 542 -70 742 -48 46 -154 107 -220 127 -49 14
-211 30 -221 21z"/>
<path d="M5430 4878 c-25 -4 -70 -15 -100 -25 -30 -9 -57 -18 -60 -18 -3 -1
-14 -5 -25 -10 -11 -4 -42 -17 -70 -27 -248 -94 -578 -282 -803 -455 -42 -33
-168 -139 -193 -163 -108 -101 -185 -179 -237 -238 -77 -86 -182 -214 -182
-222 0 -3 23 -16 50 -29 28 -14 50 -29 50 -33 0 -4 5 -8 11 -8 6 0 41 -18 77
-39 37 -21 87 -50 112 -63 25 -14 70 -39 100 -57 30 -17 66 -37 80 -44 14 -6
27 -14 30 -18 3 -3 12 -8 20 -12 8 -3 42 -22 75 -42 33 -20 68 -38 78 -42 9
-3 17 -8 17 -12 0 -18 -421 -252 -526 -291 -15 -6 -25 -12 -23 -14 2 -2 135
-70 294 -150 335 -168 429 -218 433 -228 2 -5 8 -8 13 -8 8 0 123 -64 228
-127 20 -12 50 -29 66 -39 110 -63 338 -223 475 -334 62 -50 167 -158 200
-205 38 -56 70 -124 60 -130 -27 -17 -414 0 -560 25 -30 5 -68 11 -85 14 -16
2 -55 9 -85 15 -30 6 -64 13 -75 15 -169 33 -546 152 -703 223 -65 29 -53 5
49 -97 134 -134 146 -145 349 -303 46 -36 170 -117 178 -117 6 0 12 -3 14 -7
7 -16 159 -102 318 -181 280 -137 555 -234 865 -302 33 -8 62 -14 65 -15 3 -1
28 -5 55 -10 28 -4 59 -9 70 -12 21 -4 33 -6 145 -22 68 -9 335 -7 382 3 15 4
38 10 50 15 13 5 28 9 33 10 66 8 177 77 224 137 74 97 47 217 -95 429 -29 44
-66 94 -81 111 -16 17 -41 49 -58 70 -33 42 -319 329 -381 383 -21 18 -64 55
-94 82 -119 106 -137 120 -187 146 -29 16 -53 31 -53 36 0 4 -5 7 -11 7 -6 0
-49 23 -96 50 -47 27 -86 50 -88 50 -2 0 -74 41 -160 90 -86 50 -159 90 -162
90 -3 0 -17 8 -31 18 -15 11 -52 32 -82 47 -30 16 -62 34 -70 41 -8 6 -40 24
-70 40 -30 15 -73 39 -95 53 -22 13 -62 37 -90 51 -27 15 -79 44 -115 65 -36
20 -90 51 -120 67 -30 17 -86 49 -125 71 -93 54 -163 94 -202 114 -18 9 -33
19 -33 22 0 3 31 26 68 51 81 54 78 52 122 87 19 16 53 42 75 58 22 16 42 32
45 36 3 3 34 30 70 60 92 75 325 310 396 399 96 120 202 269 260 366 29 49 58
95 64 102 6 6 8 12 5 12 -4 0 3 16 15 35 39 62 77 186 75 242 -4 106 -73 139
-235 111z"/>
</g>
</svg>
